{
	"info": {
		"_postman_id": "86d4ecf0-7ff2-457c-b0f6-52dfbf0bd916",
		"name": "node",
		"schema": "https://schema.getpostman.com/json/collection/v2.1.0/collection.json"
	},
	"item": [
		{
			"name": "reservationsController",
			"item": [
				{
					"name": "POST: add new one",
					"request": {
						"method": "POST",
						"header": [],
						"body": {
							"mode": "raw",
							"raw": "{\r\n    \"reservationDateTime\": \"2012-11-04T13:00:00.000Z\",\r\n    \"Username\": \"new\", \r\n    \"terrainName\": \"Veliki fudbalski teren\"\r\n}",
							"options": {
								"raw": {
									"language": "json"
								}
							}
						},
						"url": {
							"raw": "http://localhost:3000/reservations/addReservation",
							"protocol": "http",
							"host": [
								"localhost"
							],
							"port": "3000",
							"path": [
								"reservations",
								"addReservation"
							]
						}
					},
					"response": []
				},
				{
					"name": "delete",
					"request": {
						"method": "DELETE",
						"header": [],
						"url": {
							"raw": "http://localhost:3000/reservations/removeReservation/61a66cff220bc60b9145f47f",
							"protocol": "http",
							"host": [
								"localhost"
							],
							"port": "3000",
							"path": [
								"reservations",
								"removeReservation",
								"61a66cff220bc60b9145f47f"
							]
						}
					},
					"response": []
				},
				{
					"name": "get all",
					"request": {
						"method": "GET",
						"header": [],
						"url": {
							"raw": "http://localhost:3000/reservations/getAll",
							"protocol": "http",
							"host": [
								"localhost"
							],
							"port": "3000",
							"path": [
								"reservations",
								"getAll"
							]
						}
					},
					"response": []
				},
				{
					"name": "get by terrain id",
					"request": {
						"method": "GET",
						"header": [],
						"url": {
							"raw": "http://localhost:3000/reservations/getByTerrainId/61a68ba36d21c84b40fe8b4b",
							"protocol": "http",
							"host": [
								"localhost"
							],
							"port": "3000",
							"path": [
								"reservations",
								"getByTerrainId",
								"61a68ba36d21c84b40fe8b4b"
							]
						}
					},
					"response": []
				},
				{
					"name": "get by username",
					"request": {
						"method": "GET",
						"header": [],
						"url": {
							"raw": "http://localhost:3000/reservations/getByUsername/new",
							"protocol": "http",
							"host": [
								"localhost"
							],
							"port": "3000",
							"path": [
								"reservations",
								"getByUsername",
								"new"
							]
						}
					},
					"response": []
				},
				{
					"name": "get one by reservation id",
					"request": {
						"method": "GET",
						"header": [],
						"url": {
							"raw": "http://localhost:3000/reservations/getByReservationId/61a8d23c322a9cf8fae1d086",
							"protocol": "http",
							"host": [
								"localhost"
							],
							"port": "3000",
							"path": [
								"reservations",
								"getByReservationId",
								"61a8d23c322a9cf8fae1d086"
							]
						}
					},
					"response": []
				},
				{
					"name": "put",
					"request": {
						"method": "PUT",
						"header": [],
						"body": {
							"mode": "raw",
							"raw": "{\r\n    \"reservation_date_time\": \"2012-11-04T12:00:00.000Z\",\r\n    \"user_id\": \"61a622f418c8959ef110f822\",\r\n    \"_terrain_id\": \"61a68ba36d21c84b40fe8b4b\",\r\n    \"price\": 0,\r\n    \"_id\": \"61a8d0fcd7b70d8284da597d\"\r\n}",
							"options": {
								"raw": {
									"language": "json"
								}
							}
						},
						"url": {
							"raw": "http://localhost:3000/reservations/changeReservation/61a8d0fcd7b70d8284da597d",
							"protocol": "http",
							"host": [
								"localhost"
							],
							"port": "3000",
							"path": [
								"reservations",
								"changeReservation",
								"61a8d0fcd7b70d8284da597d"
							]
						}
					},
					"response": []
				}
			]
		},
		{
			"name": "users router",
			"item": [
				{
					"name": "get(userid -> username)",
					"request": {
						"method": "GET",
						"header": [],
						"url": {
							"raw": "http://localhost:3000/users/61a622f418c8959ef110f822",
							"protocol": "http",
							"host": [
								"localhost"
							],
							"port": "3000",
							"path": [
								"users",
								"61a622f418c8959ef110f822"
							]
						}
					},
					"response": []
				}
			]
		},
		{
			"name": "terrainsController",
			"item": [
				{
					"name": "post a new terrain",
					"request": {
						"method": "POST",
						"header": [],
						"body": {
							"mode": "raw",
							"raw": "{\r\n    \"Name\": \"Pingpong sto\",\r\n    \"Sport\": \"Pingpong\",\r\n    \"Price\": 250\r\n}",
							"options": {
								"raw": {
									"language": "json"
								}
							}
						},
						"url": {
							"raw": "http://localhost:3000/terrains/terrainPost/",
							"protocol": "http",
							"host": [
								"localhost"
							],
							"port": "3000",
							"path": [
								"terrains",
								"terrainPost",
								""
							]
						}
					},
					"response": []
				},
				{
					"name": "put - update",
					"request": {
						"method": "PUT",
						"header": [],
						"body": {
							"mode": "raw",
							"raw": "{\r\n    \"_id\": \"61a68bd77346a50c8ccf7e90\",\r\n    \"Name\": \"Veliki bejsbol\",\r\n    \"Sport\": \"Bejsbol\",\r\n    \"Price\": 300\r\n}",
							"options": {
								"raw": {
									"language": "json"
								}
							}
						},
						"url": {
							"raw": "http://localhost:3000/terrains/terrainPut/61a68bd77346a50c8ccf7e90",
							"protocol": "http",
							"host": [
								"localhost"
							],
							"port": "3000",
							"path": [
								"terrains",
								"terrainPut",
								"61a68bd77346a50c8ccf7e90"
							]
						}
					},
					"response": []
				},
				{
					"name": "delete",
					"request": {
						"method": "DELETE",
						"header": [],
						"url": {
							"raw": "http://localhost:3000/terrains/terrainDelete/61a6343c26adc54c935f809f",
							"protocol": "http",
							"host": [
								"localhost"
							],
							"port": "3000",
							"path": [
								"terrains",
								"terrainDelete",
								"61a6343c26adc54c935f809f"
							]
						}
					},
					"response": []
				},
				{
					"name": "get all",
					"request": {
						"method": "GET",
						"header": [],
						"url": {
							"raw": "http://localhost:3000/terrains/getAll",
							"protocol": "http",
							"host": [
								"localhost"
							],
							"port": "3000",
							"path": [
								"terrains",
								"getAll"
							]
						}
					},
					"response": []
				},
				{
					"name": "get by terrain id",
					"request": {
						"method": "GET",
						"header": [],
						"url": {
							"raw": "http://localhost:3000/terrains/getByTerrainId/61a6343c26adc54c935f809f",
							"protocol": "http",
							"host": [
								"localhost"
							],
							"port": "3000",
							"path": [
								"terrains",
								"getByTerrainId",
								"61a6343c26adc54c935f809f"
							]
						}
					},
					"response": []
				}
			]
		},
		{
			"name": "Register",
			"request": {
				"method": "POST",
				"header": [],
				"body": {
					"mode": "raw",
					"raw": "{\r\n    \"Username\": \"test\",\r\n    \"FirstName\": \"fasd\",\r\n    \"LastName\": \"tasdasdest\",\r\n    \"Email\": \"test@gmail.com\",\r\n    \"Password\": \"test\"\r\n}",
					"options": {
						"raw": {
							"language": "json"
						}
					}
				},
				"url": {
					"raw": "http://localhost:3000/auth/register",
					"protocol": "http",
					"host": [
						"localhost"
					],
					"port": "3000",
					"path": [
						"auth",
						"register"
					]
				}
			},
			"response": []
		},
		{
			"name": "Login",
			"request": {
				"method": "POST",
				"header": [],
				"body": {
					"mode": "raw",
					"raw": "{\r\n    \"Email\": \"test@test.com\",\r\n    \"Password\": \"test\"\r\n}",
					"options": {
						"raw": {
							"language": "json"
						}
					}
				},
				"url": {
					"raw": "http://localhost:3000/auth/login",
					"protocol": "http",
					"host": [
						"localhost"
					],
					"port": "3000",
					"path": [
						"auth",
						"login"
					]
				}
			},
			"response": []
		},
		{
			"name": "New Request",
			"protocolProfileBehavior": {
				"disableBodyPruning": true
			},
			"request": {
				"method": "GET",
				"header": [
					{
						"key": "x-access-token",
						"value": "eyJhbGciOiJIUzI1NiIsInR5cCI6IkpXVCJ9.eyJ1c2VyX2lkIjoiNjE4MjcxMjUxMThkZWI4YmZiMGNlMDBjIiwiRW1haWwiOiJuZWtvdGFtbzNAZ21haWwuY29tIiwiUm9sZSI6InVzZXIiLCJpYXQiOjE2MzU5Mzg1OTcsImV4cCI6MTYzNTk0NTc5N30.tWKF6qoknV2Cp8Sp7ToSMihDshnkjcSBqXo4IiYlt14",
						"type": "text"
					}
				],
				"body": {
					"mode": "raw",
					"raw": "{\r\n    \"token\": \"eyJhbGciOiJIUzI1NiIsInR5cCI6IkpXVCJ9.eyJ1c2VyX2lkIjoiNjE4MWFkMzJiMzQ0OWY4ZTU2NzYzZjE4IiwiRW1haWwiOiJuZWtvdGFtbzJAZ21haWwuY29tIiwiUm9sZSI6InVzZXIiLCJpYXQiOjE2MzYzNzMyNjYsImV4cCI6MTYzNjM3MzI3MX0.WAW8smreIhIXqqRAVpghDHtjUP7RLmmtqw2W1ItSmmU\"\r\n}",
					"options": {
						"raw": {
							"language": "json"
						}
					}
				},
				"url": {
					"raw": "http://localhost:3000/welcome",
					"protocol": "http",
					"host": [
						"localhost"
					],
					"port": "3000",
					"path": [
						"welcome"
					]
				}
			},
			"response": []
		},
		{
			"name": "refreshtoken",
			"request": {
				"method": "POST",
				"header": [],
				"body": {
					"mode": "raw",
					"raw": "{\r\n   \"token\": \"eyJhbGciOiJIUzI1NiIsInR5cCI6IkpXVCJ9.eyJ1c2VyX2lkIjoiNjE4MWFkMzJiMzQ0OWY4ZTU2NzYzZjE4IiwiRW1haWwiOiJuZWtvdGFtbzJAZ21haWwuY29tIiwiUm9sZSI6InVzZXIiLCJpYXQiOjE2MzYzNzMyNjYsImV4cCI6MTYzNjM3MzI3MX0.WAW8smreIhIXqqRAVpghDHtjUP7RLmmtqw2W1ItSmmU\",\r\n    \"refreshToken\": \"eyJhbGciOiJIUzI1NiIsInR5cCI6IkpXVCJ9.eyJ1c2VyX2lkIjoiNjE4MWFkMzJiMzQ0OWY4ZTU2NzYzZjE4IiwiRW1haWwiOiJuZWtvdGFtbzJAZ21haWwuY29tIiwiaWF0IjoxNjM2MzczMjY2LCJleHAiOjE2MzY0NTk2NjZ9.zSy-uqhoMTBVRyTe84CeQ_l_8FbhjY-GHAAPsVCa8kk\"\r\n}",
					"options": {
						"raw": {
							"language": "json"
						}
					}
				},
				"url": {
					"raw": "http://localhost:3000/auth/refreshtoken",
					"protocol": "http",
					"host": [
						"localhost"
					],
					"port": "3000",
					"path": [
						"auth",
						"refreshtoken"
					]
				}
			},
			"response": []
		}
	],
	"auth": {
		"type": "bearer"
	},
	"event": [
		{
			"listen": "prerequest",
			"script": {
				"type": "text/javascript",
				"exec": [
					""
				]
			}
		},
		{
			"listen": "test",
			"script": {
				"type": "text/javascript",
				"exec": [
					""
				]
			}
		}
	]
}