[{
  "_id": {
    "$oid": "619e450c9c36fb9558a47ebc"
  },
  "Username": "test",
  "FirstName": "test",
  "LastName": "test",
  "Email": "test@test.com",
  "Password": "$2a$10$FkMT8EvZYCACdvXy7RZkW.mDBBIoGev1jzzp9LJbyJQ7Yjclkaaoy",
  "Role": "user",
  "__v": 0
},{
  "_id": {
    "$oid": "619e49329c36fb9558a47ec2"
  },
  "Username": "neko",
  "FirstName": "neko",
  "LastName": "neko",
  "Email": "neko@neko.com",
  "Password": "$2a$10$8COcHYsISEq3y8K7viJ3Ge4XbSDjEvi2ho4enNdqGS1t9d1YKEZby",
  "Role": "user",
  "__v": 0
},{
  "_id": {
    "$oid": "61a619d507a01425da9bf091"
  },
  "Username": "testtest",
  "FirstName": "test",
  "LastName": "test",
  "Email": "testtest@test.com",
  "Password": "$2a$10$IgPfxp7XRLDNsrNTfBVyHeox9fI7uHGiTjNiH6T7Ylf/XClhnDG9u",
  "Role": "user",
  "__v": 0
},{
  "_id": {
    "$oid": "61a622f418c8959ef110f822"
  },
  "Username": "new",
  "FirstName": "new",
  "LastName": "new",
  "Email": "new",
  "Password": "$2a$10$dUyRGfnhdnuprjg04E5FOeoUCjEEjNzlsw7Vx9hqZDW6BVZxA.ZJ.",
  "Role": "user",
  "__v": 0
},{
  "_id": {
    "$oid": "61cc811a66cb79a8780370e3"
  },
  "Username": "admin",
  "FirstName": "admin",
  "LastName": "admin",
  "Email": "admin@admin",
  "Password": "$2a$10$ayxraR7flVYslkuabPoL4.1ZMUxSbQtrlfBsP30aWtTODVorzKFLm",
  "Role": "admin",
  "__v": 0
}]